{
	"arango": {
		"arango_database": "_system",
		"arango_collection": "users",		
		"host": "arangodb",
		"port": 8529,
		"username": "root",
		"password": "admin"
	},
	"postgres": {
		"host": "postgres",
		"port": 5432,
		"username": "postgres",
		"password": "admin",
		"databaseName": "postgres"
	}
}
